%YAML 1.1
%TAG !u! tag:unity3d.com,2011:
--- !u!114 &11400000
MonoBehaviour:
  m_ObjectHideFlags: 0
  m_CorrespondingSourceObject: {fileID: 0}
  m_PrefabInstance: {fileID: 0}
  m_PrefabAsset: {fileID: 0}
  m_GameObject: {fileID: 0}
  m_Enabled: 1
  m_EditorHideFlags: 0
  m_Script: {fileID: 11500000, guid: 3d508a3eb6584afca91ac6f12f8c2e34, type: 3}
  m_Name: Item SO
  m_EditorClassIdentifier: 
  items:
  - itemName: AIR
    icon: {fileID: 21300000, guid: e93262ac7895c4a4e95e673627581b02, type: 3}
    worldItem: {fileID: 2309065675317821603, guid: 8859e7ba24f080548954e0153780905a,
      type: 3}
  - itemName: BOMB
    icon: {fileID: 21300000, guid: 43ffeac37684ab44b9709db43b75731a, type: 3}
    worldItem: {fileID: 4517604822118800911, guid: f0d2e3c51ebb3d04c988ce33ce401fe6,
      type: 3}
  - itemName: KNIFE
    icon: {fileID: 21300000, guid: 9a8958a8d2f4e7b419dc324331a1f2f1, type: 3}
    worldItem: {fileID: -232645584968463514, guid: 70c2085443d95b3498555c1352e5d5fe,
      type: 3}
  - itemName: BANANA
    icon: {fileID: 21300000, guid: e0ffb77121fb9024eb8754720c9acdf8, type: 3}
    worldItem: {fileID: 7194176528461615017, guid: 90755dab95ae569469f6a1e5063258bf,
      type: 3}
  - itemName: CROWN
    icon: {fileID: 21300000, guid: 551e277e908b80f4e8380a40abb8922c, type: 3}
    worldItem: {fileID: 1498543065308771961, guid: 382a34e6998e6374bb08d3b7be84373a,
      type: 3}
