%YAML 1.1
%TAG !u! tag:unity3d.com,2011:
--- !u!1045 &1
EditorBuildSettings:
  m_ObjectHideFlags: 0
  serializedVersion: 2
  m_Scenes:
  - enabled: 1
    path: Assets/Scenes/OfflineSteam.unity
    guid: e37b1e0b709129844b3847ceaa82c250
  - enabled: 1
    path: Assets/Scenes/Lobby.unity
    guid: 3b810ed79f9f2be40b8822b3daa0efc4
  - enabled: 1
    path: Assets/Scenes/Celebrating.unity
    guid: e4139024a4fe70d4c8fc8a1d5c5e9c5b
  - enabled: 1
    path: Assets/Scenes/_Games/MyBananaGame.unity
    guid: d868f78319046774795805a999c36450
  - enabled: 1
    path: Assets/Scenes/_Games/BombTagGame.unity
    guid: 09bf7002eca1d69498ba87b48d852f44
  - enabled: 1
    path: Assets/Scenes/_Games/RaceGame.unity
    guid: b61781b2c9e806f458ab39623f1f94e3
  - enabled: 1
    path: Assets/Scenes/_Games/HideAndSeekGame.unity
    guid: 37259d9a992676b42b22304d1fe146f3
  m_configObjects: {}
